<?xml version="1.0" encoding="utf-8"?>
<svg version="1.1"
	 xmlns="http://www.w3.org/2000/svg" x="0px" y="0px" width="48px" height="48px" viewBox="-5.473 -2.7 48 48">
<defs>
</defs>
<rect x="33.495" y="0.058" width="3.56" height="7.104"/>
<polygon points="16.698,7.161 19.33,4.343 14.572,0.058 0,0.058 0,7.161 "/>
<polygon points="19.685,21.584 10.818,30.913 19.685,30.913 "/>
<polygon points="33.495,9.062 33.495,17.154 28.333,12.485 21.585,19.585 21.585,30.913 37.055,30.913 37.055,9.062 "/>
<polygon points="19.685,32.813 9.012,32.813 0.063,42.228 0.063,24.976 14.924,9.062 0,9.062 0,42.542 19.685,42.542 "/>
<rect x="21.585" y="32.813" width="15.47" height="9.729"/>
</svg>
