<?xml version="1.0" encoding="utf-8"?>
<svg version="1.1"
	 xmlns="http://www.w3.org/2000/svg" xmlns:xlink="http://www.w3.org/1999/xlink"
	 x="0px" y="0px" width="48px" height="48px" viewBox="-1.189 -12.595 48 48">
<defs>
</defs>
<polygon fill="#F79523" points="29.762,0 22.811,6.951 15.859,0 0,0 22.811,22.811 45.621,0 "/>
<polygon fill="#C8691C" points="29.762,0 22.811,6.951 22.811,22.811 45.621,0 "/>
</svg>
