<?xml version="1.0" encoding="utf-8"?>
<svg version="1.1"
	 xmlns="http://www.w3.org/2000/svg" xmlns:xlink="http://www.w3.org/1999/xlink"
	 x="0px" y="0px" width="48px" height="48px" viewBox="-1.409 -8.748 48 48">
<defs>
</defs>
<polygon fill="#52CAF5" points="0,0 16.1,24.275 29.255,24.275 45,0 35.582,0 22.678,20.182 9.244,0 "/>
<polygon fill="#F79523" points="17.247,26.768 28.356,26.768 23.023,34.229 "/>
</svg>
