<?xml version="1.0" encoding="utf-8"?>
<svg version="1.1"
	 xmlns="http://www.w3.org/2000/svg" xmlns:xlink="http://www.w3.org/1999/xlink"
	 x="0px" y="0px" width="48px" height="48px" viewBox="-12.419 -2.664 48 48">
<defs>
</defs>
<polygon opacity="0.6" fill="#F79523" points="3.825,0 0,3.825 17.51,21.336 0,38.848 3.825,42.672 25.161,21.336 "/>
<polygon opacity="0.6" fill="#52CAF5" points="3.324,14.968 10.432,21.52 3.324,28.162 "/>
</svg>
