<?xml version="1.0" encoding="utf-8"?>
<svg version="1.1"
	 xmlns="http://www.w3.org/2000/svg" xmlns:xlink="http://www.w3.org/1999/xlink"
	 x="0px" y="0px" width="48px" height="48px" viewBox="-6.886 -1.5 48 48">
<defs>
</defs>
<polygon fill="#52CAF5" points="0,45 24.274,28.9 24.274,15.745 0,0 0,9.418 20.182,22.322 0,35.756 "/>
<polygon fill="#F79523" points="26.768,27.753 26.768,16.644 34.229,21.977 "/>
</svg>
