<?xml version="1.0" encoding="utf-8"?>
<svg version="1.1"
	 xmlns="http://www.w3.org/2000/svg" xmlns:xlink="http://www.w3.org/1999/xlink"
	 x="0px" y="0px" width="28px" height="28px" viewBox="-8 -1.5 28 28">
<defs>
</defs>
<polygon fill="#23b9f7" points="0,0 13.8,11.2 0,25 "/>
<polygon fill="#1ca6c8" points="13.8,11.2 0,25 0,11.5 "/>
</svg>
