<?xml version="1.0" encoding="utf-8"?>
<svg version="1.1"
	 xmlns="http://www.w3.org/2000/svg" xmlns:xlink="http://www.w3.org/1999/xlink"
	 x="0px" y="0px" width="12px" height="12px" viewBox="-0.413 -0.413 12 12">
<defs>
</defs>
<path fill="#23f0f7" d="M0,0v11.174h11.174V0H0z M10.346,10.348H0.828v-9.52h9.518V10.348z"/>
</svg>
