<?xml version="1.0" encoding="utf-8"?>
<svg version="1.1"
	 xmlns="http://www.w3.org/2000/svg" xmlns:xlink="http://www.w3.org/1999/xlink"
	 x="0px" y="0px" width="48px" height="48px" viewBox="0 0 48 48">
<defs>
</defs>
<polygon points="28.485,18.574 43.257,13.772 46.022,22.32 31.271,27.103 40.394,39.666 33.134,44.946 24.01,32.385 14.886,44.946 
	7.624,39.666 16.729,27.122 1.978,22.32 4.743,13.772 19.515,18.574 19.515,3.054 28.485,3.054 "/>
</svg>
