<?xml version="1.0" encoding="utf-8"?>
<svg version="1.1"
	 xmlns="http://www.w3.org/2000/svg" xmlns:xlink="http://www.w3.org/1999/xlink"
	 x="0px" y="0px" width="28px" height="28px" viewBox="-1.195 -1.675 28 28">
<defs>
</defs>
<circle fill="#F79523" cx="12.805" cy="12.805" r="12.805"/>
<path fill="#C8691C" d="M12.805,0c-0.109,0-0.213,0.013-0.321,0.016v25.578c0.108,0.002,0.212,0.016,0.321,0.016
	c7.071,0,12.805-5.733,12.805-12.805C25.609,5.732,19.876,0,12.805,0z"/>
</svg>
