<?xml version="1.0" encoding="utf-8"?>
<svg version="1.1"
	 xmlns="http://www.w3.org/2000/svg" xmlns:xlink="http://www.w3.org/1999/xlink"
	 x="0px" y="0px" width="13px" height="11px" viewBox="0.03 -0.48 13 11">
<defs>
</defs>
<polygon fill="#F79523" points="6.522,4.316 10.525,8.319 12.158,6.688 6.522,1.052 0.886,6.688 2.518,8.319 "/>
<polygon fill="#C8691C" points="6.522,4.316 10.525,8.319 12.158,6.688 6.522,1.052 "/>
</svg>
