<?xml version="1.0" encoding="utf-8"?>
<svg version="1.1"
	 xmlns="http://www.w3.org/2000/svg" x="0px" y="0px" width="40px" height="40px" viewBox="-2.571 -2.571 40 40">
<defs>
</defs>
<circle cx="17.429" cy="17.429" r="17.429"/>
</svg>
