<?xml version="1.0" encoding="utf-8"?>
<svg version="1.1"
	 xmlns="http://www.w3.org/2000/svg" xmlns:xlink="http://www.w3.org/1999/xlink"
	 x="0px" y="0px" width="12px" height="12px" viewBox="-0.413 -0.413 12 12">
<defs>
</defs>
<path fill="#f7dc23" d="M0,0v11.174h11.174V0H0z M10.346,10.348H0.828v-9.52h9.518V10.348z"/>
<polygon fill="#5293f5" points="1.549,6.67 3.625,9.343 9.625,2.55 8.859,1.831 3.799,7.377 2.398,5.764 "/>
</svg>
