<?xml version="1.0" encoding="utf-8"?>
<svg version="1.1"
	 xmlns="http://www.w3.org/2000/svg" xmlns:xlink="http://www.w3.org/1999/xlink"
	 x="0px" y="0px" width="17px" height="17px" viewBox="0 0 17 17">
<defs>
</defs>
<rect opacity="0" fill="#FFFFFF" width="17" height="17"/>
<polygon fill="#F89624" points="11.834,0.375 13.291,1.832 6.623,8.5 13.291,15.17 11.834,16.626 3.709,8.5 "/>
<polygon fill="#56CAF5" points="12.025,6.076 9.318,8.57 12.025,11.101 "/>
</svg>
