<?xml version="1.0" encoding="utf-8"?>
<svg version="1.1"
	 xmlns="http://www.w3.org/2000/svg" xmlns:xlink="http://www.w3.org/1999/xlink"
	 x="0px" y="0px" width="256px" height="256px" viewBox="-9.764 -9.764 256 256">
<defs>
</defs>
<radialGradient id="SVGID_1_" cx="119.2031" cy="116.0771" r="118.0347" fx="118.152" fy="115.3924" gradientUnits="userSpaceOnUse">
	<stop  offset="0.1636" style="stop-color:#3E3F3F"/>
	<stop  offset="0.3422" style="stop-color:#404142;stop-opacity:0.7865"/>
	<stop  offset="0.4753" style="stop-color:#484949;stop-opacity:0.6273"/>
	<stop  offset="0.5937" style="stop-color:#565657;stop-opacity:0.4858"/>
	<stop  offset="0.7036" style="stop-color:#6C6C6C;stop-opacity:0.3544"/>
	<stop  offset="0.8075" style="stop-color:#8C8B8C;stop-opacity:0.2302"/>
	<stop  offset="0.9056" style="stop-color:#B9B8B8;stop-opacity:0.1129"/>
	<stop  offset="1" style="stop-color:#FFFFFF;stop-opacity:0"/>
</radialGradient>
<path fill="url(#SVGID_1_)" d="M117.737,0C52.712,0,0,52.712,0,117.737c0,65.023,52.712,117.737,117.737,117.737
	c65.023,0,117.737-52.714,117.737-117.737C235.474,52.712,182.76,0,117.737,0z M117.737,208.304
	c-50.019,0-90.567-40.55-90.567-90.567c0-50.019,40.548-90.567,90.567-90.567c50.017,0,90.567,40.548,90.567,90.567
	C208.304,167.754,167.754,208.304,117.737,208.304z"/>
</svg>
