<?xml version="1.0" encoding="utf-8"?>
<svg version="1.1"
	 xmlns="http://www.w3.org/2000/svg" x="0px" y="0px" width="28px" height="28px" viewBox="-2.15 -2.1 28 28">
<defs>
</defs>
<polygon points="11.8,0 9.4,2.4 19,11.9 9.4,21.5 11.8,23.8 23.7,11.9 "/>
<polygon points="2.4,0 0,2.4 9.6,11.9 0,21.5 2.4,23.8 14.299,11.9 "/>
</svg>
