<?xml version="1.0" encoding="UTF-8" standalone="no"?>
<svg
   xmlns="http://www.w3.org/2000/svg"
   version="1.1"
   x="0px"
   y="0px"
   width="30px"
   height="30px"
   viewBox="0 0 30 30">
  <path
     d="M 14.25,0 C 6.38,0 0,6.38 0,14.25 0,22.12 6.38,28.5 14.25,28.5 22.12,28.5 28.5,22.12 28.5,14.25 28.5,6.38 22.12,0 14.25,0 Z M 3.979,16.059237 v -3.620474 h 20.539 v 3.620474 z"
     id="path1848" />
</svg>
