<?xml version="1.0" encoding="utf-8"?>
<svg version="1.1"
	 xmlns="http://www.w3.org/2000/svg" x="0px" y="0px" width="48px" height="48px" viewBox="-11.938 -3.013 48 48">
<defs>
</defs>
<path d="M22.105,33.524c-0.779,0.373-2.273,0.697-3.389,0.727c-3.357,0.092-4.01-2.358-4.039-4.139V17.046h8.43v-6.353h-8.398V0
	H8.56C8.458,0,8.282,0.088,8.259,0.313C7.9,3.585,6.366,9.33,0,11.624v5.422h4.248v13.716c0,4.693,3.464,11.365,12.607,11.209
	c3.084-0.053,6.51-1.346,7.27-2.457L22.105,33.524"/>
</svg>
