<?xml version="1.0" encoding="utf-8"?>
<svg version="1.1"
	 xmlns="http://www.w3.org/2000/svg" xmlns:xlink="http://www.w3.org/1999/xlink"
	 x="0px" y="0px" width="6px" height="6px" viewBox="0 0 6 6">
<defs>
</defs>
<rect opacity="0" fill="#ffffff" width="6" height="6"/>
<polygon fill="#e4f552" points="1.902,5.831 1.267,5.195 3.461,2.999 1.267,0.805 1.903,0.169 4.733,2.999 "/>
</svg>
