<?xml version="1.0" encoding="utf-8"?>
<svg version="1.1"
	 xmlns="http://www.w3.org/2000/svg" x="0px" y="0px" width="17px" height="17px" viewBox="0 0 17 17">
<defs>
</defs>
<path d="M11.885,7.34L5.797,1.251C5.158,0.613,4.636,0.829,4.636,1.732v3.94L6.303,7.34c0.639,0.638,0.639,1.684,0,2.321
	L4.636,11.33v3.938c0,0.903,0.522,1.119,1.161,0.481l6.088-6.09C12.523,9.023,12.523,7.978,11.885,7.34z"/>
</svg>
