<?xml version="1.0" encoding="utf-8"?>

<!DOCTYPE svg PUBLIC "-//W3C//DTD SVG 1.1//EN" "http://www.w3.org/Graphics/SVG/1.1/DTD/svg11.dtd">
<svg version="1.1" id="Layer_1" xmlns="http://www.w3.org/2000/svg" xmlns:xlink="http://www.w3.org/1999/xlink" x="0px" y="0px"
	 width="48px" height="48px" viewBox="0 0 48 48">
<path d="M26.922,8.858c0,1.607-1.129,2.896-3.002,2.896c-1.714,0-2.841-1.288-2.841-2.896c0-1.61,1.179-2.95,2.946-2.95
	C25.746,5.908,26.922,7.197,26.922,8.858z M21.667,42.092V16.146h4.719v25.945L21.667,42.092L21.667,42.092z"/>
</svg>
