<?xml version="1.0" encoding="utf-8"?>
<svg version="1.1"
	 xmlns="http://www.w3.org/2000/svg" x="0px" y="0px" width="28px" height="28px" viewBox="-7.1 -1.5 28 28">
<defs>
</defs>
<polygon points="0,0 13.8,11.2 0,25 "/>
</svg>
